EESchema Schematic File Version 4
EELAYER 30 0
EELAYER END
$Descr A4 11693 8268
encoding utf-8
Sheet 1 1
Title ""
Date ""
Rev ""
Comp ""
Comment1 ""
Comment2 ""
Comment3 ""
Comment4 ""
$EndDescr
$Comp
L MCU_Microchip_ATtiny:ATtiny1614-SS U1
U 1 1 5E70F6F5
P 2340 3190
F 0 "U1" V 1640 2700 50  0000 C CNN
F 1 "ATtiny1614-SS" V 1750 2920 50  0000 C CNN
F 2 "Package_SO:SOIC-14_3.9x8.7mm_P1.27mm" H 2340 3190 50  0001 C CIN
F 3 "http://ww1.microchip.com/downloads/en/DeviceDoc/ATtiny1614-data-sheet-40001995A.pdf" H 2340 3190 50  0001 C CNN
	1    2340 3190
	1    0    0    -1  
$EndComp
Wire Wire Line
	2940 2790 3400 2790
Wire Wire Line
	2940 2890 3400 2890
Wire Wire Line
	2940 2990 3400 2990
Wire Wire Line
	2940 3090 3400 3090
Wire Wire Line
	2940 3190 3400 3190
Wire Wire Line
	2940 3290 3400 3290
Wire Wire Line
	2940 3390 3400 3390
Wire Wire Line
	2940 3490 3400 3490
$Comp
L Device:C C1
U 1 1 5E710AE4
P 920 3020
F 0 "C1" H 1035 3066 50  0000 L CNN
F 1 "1uF" H 1035 2975 50  0000 L CNN
F 2 "Capacitor_SMD:C_1206_3216Metric_Pad1.42x1.75mm_HandSolder" H 958 2870 50  0001 C CNN
F 3 "~" H 920 3020 50  0001 C CNN
	1    920  3020
	1    0    0    -1  
$EndComp
Text Label 3400 2790 2    50   ~ 0
UPDI
$Comp
L power:GND #PWR01
U 1 1 5E712E7C
P 920 4330
F 0 "#PWR01" H 920 4080 50  0001 C CNN
F 1 "GND" H 925 4157 50  0000 C CNN
F 2 "" H 920 4330 50  0001 C CNN
F 3 "" H 920 4330 50  0001 C CNN
	1    920  4330
	1    0    0    -1  
$EndComp
Wire Wire Line
	920  3170 920  3890
Wire Wire Line
	2340 3890 920  3890
Connection ~ 920  3890
Wire Wire Line
	2340 2490 920  2490
Connection ~ 920  2490
Wire Wire Line
	920  2490 920  2870
$Comp
L power:PWR_FLAG #FLG01
U 1 1 5E71A719
P 1400 800
F 0 "#FLG01" H 1400 875 50  0001 C CNN
F 1 "PWR_FLAG" V 1400 928 50  0000 L CNN
F 2 "" H 1400 800 50  0001 C CNN
F 3 "~" H 1400 800 50  0001 C CNN
	1    1400 800 
	0    1    1    0   
$EndComp
Text Label 3400 2890 2    50   ~ 0
RX
Text Label 3400 2990 2    50   ~ 0
TX
Text Label 3400 3090 2    50   ~ 0
IC1_IN2
Text Label 3400 3190 2    50   ~ 0
LED
$Comp
L Device:LED D6
U 1 1 5E71C184
P 7300 2150
F 0 "D6" H 7293 1895 50  0000 C CNN
F 1 "LED" H 7293 1986 50  0000 C CNN
F 2 "LED_SMD:LED_1206_3216Metric_Pad1.42x1.75mm_HandSolder" H 7300 2150 50  0001 C CNN
F 3 "~" H 7300 2150 50  0001 C CNN
	1    7300 2150
	-1   0    0    1   
$EndComp
Wire Wire Line
	7150 2150 6825 2150
Text Label 6825 2150 0    50   ~ 0
LED
$Comp
L Connector:Conn_01x06_Male J2
U 1 1 5E722C66
P 4875 2825
F 0 "J2" H 4847 2707 50  0000 R CNN
F 1 "FTDI_Conn_01x06_Male" H 4847 2798 50  0000 R CNN
F 2 "custom-footprints:FTDI_Header_1x06_P2.54mm_Horizontal" H 4875 2825 50  0001 C CNN
F 3 "~" H 4875 2825 50  0001 C CNN
	1    4875 2825
	-1   0    0    1   
$EndComp
Wire Wire Line
	4675 2525 3950 2525
Wire Wire Line
	4675 2825 3950 2825
Wire Wire Line
	4675 2925 3950 2925
NoConn ~ 4675 3025
NoConn ~ 4675 2625
Text Label 3950 2525 0    50   ~ 0
GND
Text Label 3950 2825 0    50   ~ 0
TX
Text Label 3950 2925 0    50   ~ 0
RX
$Comp
L Connector:Conn_01x02_Male J3
U 1 1 5E726972
P 4850 3425
F 0 "J3" H 4822 3307 50  0000 R CNN
F 1 "UPDI_Conn_01x02_Male" H 4822 3398 50  0000 R CNN
F 2 "custom-footprints:UPDI_Header_1x02_P2.54mm_Horizontal" H 4850 3425 50  0001 C CNN
F 3 "~" H 4850 3425 50  0001 C CNN
	1    4850 3425
	-1   0    0    1   
$EndComp
Wire Wire Line
	4650 3325 4300 3325
Wire Wire Line
	4650 3425 4300 3425
Text Label 4300 3325 0    50   ~ 0
UPDI
Text Label 4300 3425 0    50   ~ 0
GND
$Comp
L Switch:SW_Push SW1
U 1 1 5E728B29
P 5600 1400
F 0 "SW1" H 5600 1685 50  0000 C CNN
F 1 "SW_Push" H 5600 1594 50  0000 C CNN
F 2 "custom-footprints:TACTILE_SW_B3S" H 5600 1600 50  0001 C CNN
F 3 "~" H 5600 1600 50  0001 C CNN
	1    5600 1400
	1    0    0    -1  
$EndComp
Text Label 4800 1400 0    50   ~ 0
BUTTON
Text Label 3400 3390 2    50   ~ 0
MIC
Wire Wire Line
	1740 2790 1370 2790
Wire Wire Line
	1740 2890 1370 2890
Wire Wire Line
	1740 2990 1370 2990
Wire Wire Line
	1740 3090 1370 3090
Text Label 1370 2790 0    50   ~ 0
IC1_IN1
Text Label 1370 2890 0    50   ~ 0
IC2_IN2
Text Label 3400 3290 2    50   ~ 0
BUTTON
Text Label 3400 3490 2    50   ~ 0
PHOTO
Text Label 1370 2990 0    50   ~ 0
IC2_IN1
Text Label 1370 3090 0    50   ~ 0
SPEAKER
Text Label 920  1925 0    50   ~ 0
3V3
$Comp
L Device:C C7
U 1 1 5E7FD370
P 8500 3450
F 0 "C7" H 8615 3496 50  0000 L CNN
F 1 "0.1uF" H 8615 3405 50  0000 L CNN
F 2 "Capacitor_SMD:C_1206_3216Metric_Pad1.42x1.75mm_HandSolder" H 8538 3300 50  0001 C CNN
F 3 "~" H 8500 3450 50  0001 C CNN
	1    8500 3450
	1    0    0    -1  
$EndComp
Wire Wire Line
	8150 3400 8150 3300
Wire Wire Line
	8150 3300 8500 3300
Wire Wire Line
	8150 3500 8150 3600
Wire Wire Line
	8150 3600 8500 3600
$Comp
L Device:C C5
U 1 1 5E800A84
P 6350 3500
F 0 "C5" V 6098 3500 50  0000 C CNN
F 1 "10uF" V 6189 3500 50  0000 C CNN
F 2 "Capacitor_SMD:C_1206_3216Metric_Pad1.42x1.75mm_HandSolder" H 6388 3350 50  0001 C CNN
F 3 "~" H 6350 3500 50  0001 C CNN
	1    6350 3500
	0    1    1    0   
$EndComp
$Comp
L Device:R R7
U 1 1 5E801539
P 6700 3250
F 0 "R7" H 6770 3296 50  0000 L CNN
F 1 "1k" H 6770 3205 50  0000 L CNN
F 2 "Resistor_SMD:R_1206_3216Metric_Pad1.42x1.75mm_HandSolder" V 6630 3250 50  0001 C CNN
F 3 "~" H 6700 3250 50  0001 C CNN
	1    6700 3250
	1    0    0    -1  
$EndComp
Wire Wire Line
	6850 3500 6500 3500
Wire Wire Line
	8500 3600 8500 3750
Connection ~ 8500 3600
Wire Wire Line
	6700 3100 6700 3050
Text Label 6700 2650 0    50   ~ 0
MIC
$Comp
L Device:C C4
U 1 1 5E80DF72
P 6350 3050
F 0 "C4" V 6602 3050 50  0000 C CNN
F 1 "0.1uF" V 6511 3050 50  0000 C CNN
F 2 "Capacitor_SMD:C_1206_3216Metric_Pad1.42x1.75mm_HandSolder" H 6388 2900 50  0001 C CNN
F 3 "~" H 6350 3050 50  0001 C CNN
	1    6350 3050
	0    -1   -1   0   
$EndComp
Wire Wire Line
	6500 3050 6700 3050
Connection ~ 6700 3050
Wire Wire Line
	6700 3050 6700 2650
Wire Wire Line
	6850 3400 6700 3400
Connection ~ 8500 3300
Text Label 8500 2700 0    50   ~ 0
3V3
$Comp
L Device:LED D4
U 1 1 5E81FB92
P 7300 1350
F 0 "D4" H 7293 1095 50  0000 C CNN
F 1 "TX_LED" H 7293 1186 50  0000 C CNN
F 2 "LED_SMD:LED_1206_3216Metric_Pad1.42x1.75mm_HandSolder" H 7300 1350 50  0001 C CNN
F 3 "~" H 7300 1350 50  0001 C CNN
	1    7300 1350
	-1   0    0    1   
$EndComp
Wire Wire Line
	7150 1350 6825 1350
Text Label 6825 1350 0    50   ~ 0
TX
$Comp
L Device:LED D5
U 1 1 5E82334E
P 7300 1750
F 0 "D5" H 7293 1495 50  0000 C CNN
F 1 "RX_LED" H 7293 1586 50  0000 C CNN
F 2 "LED_SMD:LED_1206_3216Metric_Pad1.42x1.75mm_HandSolder" H 7300 1750 50  0001 C CNN
F 3 "~" H 7300 1750 50  0001 C CNN
	1    7300 1750
	-1   0    0    1   
$EndComp
Wire Wire Line
	7150 1750 6825 1750
Text Label 6825 1750 0    50   ~ 0
RX
Wire Wire Line
	1200 1000 1200 1100
Connection ~ 1200 1100
Text Label 1200 575  0    50   ~ 0
9V
Wire Wire Line
	1200 800  1400 800 
Text Label 9300 3050 0    50   ~ 0
3V3
Text Label 9300 5400 0    50   ~ 0
3V3
$Comp
L Device:LED D1
U 1 1 5E8E2D89
P 5275 925
F 0 "D1" H 5268 670 50  0000 C CNN
F 1 "External_PWR_LED" H 5268 761 50  0000 C CNN
F 2 "LED_SMD:LED_1206_3216Metric_Pad1.42x1.75mm_HandSolder" H 5275 925 50  0001 C CNN
F 3 "~" H 5275 925 50  0001 C CNN
	1    5275 925 
	-1   0    0    1   
$EndComp
$Comp
L Device:R R2
U 1 1 5E8E2D93
P 5750 925
F 0 "R2" V 5543 925 50  0000 C CNN
F 1 "499" V 5634 925 50  0000 C CNN
F 2 "Resistor_SMD:R_1206_3216Metric_Pad1.42x1.75mm_HandSolder" V 5680 925 50  0001 C CNN
F 3 "~" H 5750 925 50  0001 C CNN
	1    5750 925 
	0    1    1    0   
$EndComp
Wire Wire Line
	5425 925  5600 925 
Wire Wire Line
	5125 925  4800 925 
Wire Wire Line
	5900 925  6225 925 
Text Label 4800 925  0    50   ~ 0
9V
Text Label 6225 925  2    50   ~ 0
GND
$Comp
L Connector_Generic:Conn_02x02_Odd_Even J6
U 1 1 5E902D6B
P 10000 950
F 0 "J6" H 10050 1167 50  0000 C CNN
F 1 "Motor" H 10050 1076 50  0000 C CNN
F 2 "custom-footprints:PinHeader_2x02_P2.54mm_Vertical_SMD" H 10000 950 50  0001 C CNN
F 3 "~" H 10000 950 50  0001 C CNN
	1    10000 950 
	1    0    0    -1  
$EndComp
Wire Wire Line
	9800 950  9350 950 
Text Label 9350 950  0    50   ~ 0
IC1_OUT2
Wire Wire Line
	9800 1050 9350 1050
Wire Wire Line
	10300 950  10750 950 
Text Label 9350 1050 0    50   ~ 0
IC1_OUT1
Text Label 10750 950  2    50   ~ 0
IC2_OUT2
Wire Wire Line
	10300 1050 10750 1050
Text Label 10750 1050 2    50   ~ 0
IC2_OUT1
Text Label 10900 5200 2    50   ~ 0
IC2_OUT2
Text Label 10900 5100 2    50   ~ 0
IC2_OUT1
Text Label 9300 5200 0    50   ~ 0
IC2_IN2
Text Label 9300 5100 0    50   ~ 0
IC2_IN1
Wire Wire Line
	10450 5200 10900 5200
Wire Wire Line
	10450 5100 10900 5100
Wire Wire Line
	9650 5100 9300 5100
Wire Wire Line
	9650 5200 9300 5200
Wire Wire Line
	9650 5400 9300 5400
Wire Wire Line
	10450 4300 10750 4300
Connection ~ 10450 4300
Wire Wire Line
	10450 4700 10450 4300
Wire Wire Line
	10350 4700 10450 4700
Text Label 10750 4300 2    50   ~ 0
GND
Wire Wire Line
	10350 4300 10450 4300
Wire Wire Line
	10050 4700 10050 4900
Connection ~ 10050 4700
$Comp
L Device:C C11
U 1 1 5E89D5EE
P 10200 4700
F 0 "C11" V 9948 4700 50  0000 C CNN
F 1 "0.1uF" V 10039 4700 50  0000 C CNN
F 2 "Capacitor_SMD:C_1206_3216Metric_Pad1.42x1.75mm_HandSolder" H 10238 4550 50  0001 C CNN
F 3 "~" H 10200 4700 50  0001 C CNN
	1    10200 4700
	0    1    1    0   
$EndComp
Connection ~ 10050 4300
Wire Wire Line
	10050 4300 10050 4700
Wire Wire Line
	10050 4300 10050 3950
Connection ~ 10050 5700
Wire Wire Line
	10150 5700 10050 5700
Text Label 10050 5950 0    50   ~ 0
GND
Wire Wire Line
	10050 5700 10050 5950
$Comp
L Device:C C10
U 1 1 5E89D5DD
P 10200 4300
F 0 "C10" V 9948 4300 50  0000 C CNN
F 1 "10uF" V 10039 4300 50  0000 C CNN
F 2 "Capacitor_SMD:C_1206_3216Metric_Pad1.42x1.75mm_HandSolder" H 10238 4150 50  0001 C CNN
F 3 "~" H 10200 4300 50  0001 C CNN
	1    10200 4300
	0    1    1    0   
$EndComp
Text Label 10050 3950 0    50   ~ 0
9V
$Comp
L Driver_Motor:A4953_LJ U5
U 1 1 5E89D5D2
P 10050 5300
F 0 "U5" H 10300 5750 50  0000 C CNN
F 1 "IC2_A4953_LJ" H 10350 5650 50  0000 C CNN
F 2 "Package_SO:SOIC-8-1EP_3.9x4.9mm_P1.27mm_EP2.41x3.3mm" H 10050 4750 50  0001 C CNN
F 3 "www.allegromicro.com/~/media/Files/Datasheets/A4952-3-Datasheet.ashx?la=en" H 9750 5650 50  0001 C CNN
	1    10050 5300
	1    0    0    -1  
$EndComp
Text Label 10900 2850 2    50   ~ 0
IC1_OUT2
Text Label 10900 2750 2    50   ~ 0
IC1_OUT1
Text Label 9300 2850 0    50   ~ 0
IC1_IN2
Text Label 9300 2750 0    50   ~ 0
IC1_IN1
Wire Wire Line
	10450 2850 10900 2850
Wire Wire Line
	10450 2750 10900 2750
Wire Wire Line
	9650 2750 9300 2750
Wire Wire Line
	9650 2850 9300 2850
Wire Wire Line
	9650 3050 9300 3050
Wire Wire Line
	10450 1950 10750 1950
Connection ~ 10450 1950
Wire Wire Line
	10450 2350 10450 1950
Wire Wire Line
	10350 2350 10450 2350
Text Label 10750 1950 2    50   ~ 0
GND
Wire Wire Line
	10350 1950 10450 1950
Wire Wire Line
	10050 2350 10050 2550
Connection ~ 10050 2350
$Comp
L Device:C C9
U 1 1 5E8671DA
P 10200 2350
F 0 "C9" V 9948 2350 50  0000 C CNN
F 1 "0.1uF" V 10039 2350 50  0000 C CNN
F 2 "Capacitor_SMD:C_1206_3216Metric_Pad1.42x1.75mm_HandSolder" H 10238 2200 50  0001 C CNN
F 3 "~" H 10200 2350 50  0001 C CNN
	1    10200 2350
	0    1    1    0   
$EndComp
Connection ~ 10050 1950
Wire Wire Line
	10050 1950 10050 2350
Wire Wire Line
	10050 1950 10050 1600
Connection ~ 10050 3350
Wire Wire Line
	10150 3350 10050 3350
Text Label 10050 3600 0    50   ~ 0
GND
Wire Wire Line
	10050 3350 10050 3600
$Comp
L Device:C C8
U 1 1 5E847EB4
P 10200 1950
F 0 "C8" V 9948 1950 50  0000 C CNN
F 1 "10uF" V 10039 1950 50  0000 C CNN
F 2 "Capacitor_SMD:C_1206_3216Metric_Pad1.42x1.75mm_HandSolder" H 10238 1800 50  0001 C CNN
F 3 "~" H 10200 1950 50  0001 C CNN
	1    10200 1950
	0    1    1    0   
$EndComp
Text Label 10050 1600 0    50   ~ 0
9V
$Comp
L Driver_Motor:A4953_LJ U4
U 1 1 5E8295FC
P 10050 2950
F 0 "U4" H 10300 3400 50  0000 C CNN
F 1 "IC1_A4953_LJ" H 10350 3300 50  0000 C CNN
F 2 "Package_SO:SOIC-8-1EP_3.9x4.9mm_P1.27mm_EP2.41x3.3mm" H 10050 2400 50  0001 C CNN
F 3 "www.allegromicro.com/~/media/Files/Datasheets/A4952-3-Datasheet.ashx?la=en" H 9750 3300 50  0001 C CNN
	1    10050 2950
	1    0    0    -1  
$EndComp
$Comp
L Device:LED D3
U 1 1 5E93E79B
P 7275 900
F 0 "D3" H 7268 645 50  0000 C CNN
F 1 "PWR_LED" H 7268 736 50  0000 C CNN
F 2 "LED_SMD:LED_1206_3216Metric_Pad1.42x1.75mm_HandSolder" H 7275 900 50  0001 C CNN
F 3 "~" H 7275 900 50  0001 C CNN
	1    7275 900 
	-1   0    0    1   
$EndComp
Wire Wire Line
	7125 900  6800 900 
Text Label 6800 900  0    50   ~ 0
3V3
$Comp
L Transistor_FET:ZXM61N02F Q2
U 1 1 5E948BB8
P 8000 5250
F 0 "Q2" H 8204 5296 50  0000 L CNN
F 1 "NDS355AN" H 8204 5205 50  0000 L CNN
F 2 "Package_TO_SOT_SMD:SOT-23" H 8200 5175 50  0001 L CIN
F 3 "http://www.diodes.com/assets/Datasheets/ZXM61N02F.pdf" H 8000 5250 50  0001 L CNN
	1    8000 5250
	1    0    0    -1  
$EndComp
Wire Wire Line
	7800 5250 7650 5250
Text Label 6950 5250 0    50   ~ 0
SPEAKER
Wire Wire Line
	8100 4750 8100 4350
Text Label 8100 4350 0    50   ~ 0
9V
$Comp
L Device:C C6
U 1 1 5E96C684
P 7500 5250
F 0 "C6" V 7248 5250 50  0000 C CNN
F 1 "1uF" V 7339 5250 50  0000 C CNN
F 2 "Capacitor_SMD:C_1206_3216Metric_Pad1.42x1.75mm_HandSolder" H 7538 5100 50  0001 C CNN
F 3 "~" H 7500 5250 50  0001 C CNN
	1    7500 5250
	0    1    1    0   
$EndComp
Wire Wire Line
	7350 5250 6950 5250
$Comp
L Device:R R8
U 1 1 5E97A30F
P 7800 4850
F 0 "R8" V 7593 4850 50  0000 C CNN
F 1 "2.2k" V 7684 4850 50  0000 C CNN
F 2 "Resistor_SMD:R_1206_3216Metric_Pad1.42x1.75mm_HandSolder" V 7730 4850 50  0001 C CNN
F 3 "~" H 7800 4850 50  0001 C CNN
	1    7800 4850
	0    1    1    0   
$EndComp
Wire Wire Line
	8100 4850 7950 4850
Wire Wire Line
	7650 4850 7650 5250
Connection ~ 7650 5250
Wire Wire Line
	8100 4850 8100 5050
NoConn ~ 6300 5050
Text Label 6700 5250 2    50   ~ 0
SPEAKER
Text Label 6700 4950 2    50   ~ 0
GND
Wire Wire Line
	6300 5250 6700 5250
Wire Wire Line
	6300 4950 6700 4950
$Comp
L Device:Q_Photo_NPN Q1
U 1 1 5E9C4616
P 4300 5050
F 0 "Q1" H 4490 5096 50  0000 L CNN
F 1 "Q_Photo_NPN" H 4490 5005 50  0000 L CNN
F 2 "custom-footprints:Phototransistor_LEDC3215X130N" H 4500 5150 50  0001 C CNN
F 3 "~" H 4300 5050 50  0001 C CNN
	1    4300 5050
	1    0    0    -1  
$EndComp
Wire Wire Line
	4400 5250 4400 5600
Text Label 4400 5600 0    50   ~ 0
GND
$Comp
L Device:R R1
U 1 1 5E9CA6F5
P 4400 4500
F 0 "R1" H 4470 4546 50  0000 L CNN
F 1 "10k" H 4470 4455 50  0000 L CNN
F 2 "Resistor_SMD:R_1206_3216Metric_Pad1.42x1.75mm_HandSolder" V 4330 4500 50  0001 C CNN
F 3 "~" H 4400 4500 50  0001 C CNN
	1    4400 4500
	1    0    0    -1  
$EndComp
Wire Wire Line
	4400 4350 4400 4100
Text Label 4400 4100 0    50   ~ 0
3V3
Wire Wire Line
	4400 4650 4400 4750
Wire Wire Line
	4400 4750 3950 4750
Connection ~ 4400 4750
Wire Wire Line
	4400 4750 4400 4850
Text Label 3950 4750 0    50   ~ 0
PHOTO
$Comp
L power:GND #PWR03
U 1 1 5E9EF2A9
P 8100 5700
F 0 "#PWR03" H 8100 5450 50  0001 C CNN
F 1 "GND" H 8105 5527 50  0000 C CNN
F 2 "" H 8100 5700 50  0001 C CNN
F 3 "" H 8100 5700 50  0001 C CNN
	1    8100 5700
	1    0    0    -1  
$EndComp
Wire Wire Line
	8100 5450 8100 5700
$Comp
L power:GND #PWR04
U 1 1 5E9F4FB7
P 8500 3900
F 0 "#PWR04" H 8500 3650 50  0001 C CNN
F 1 "GND" H 8505 3727 50  0000 C CNN
F 2 "" H 8500 3900 50  0001 C CNN
F 3 "" H 8500 3900 50  0001 C CNN
	1    8500 3900
	1    0    0    -1  
$EndComp
Wire Wire Line
	920  1925 920  2490
$Comp
L power:GND #PWR02
U 1 1 5EA22209
P 1200 1280
F 0 "#PWR02" H 1200 1030 50  0001 C CNN
F 1 "GND" H 1205 1107 50  0000 C CNN
F 2 "" H 1200 1280 50  0001 C CNN
F 3 "" H 1200 1280 50  0001 C CNN
	1    1200 1280
	1    0    0    -1  
$EndComp
Wire Wire Line
	920  3890 920  4330
Wire Wire Line
	1200 1100 1400 1100
Wire Wire Line
	1200 1100 1200 1280
$Comp
L power:PWR_FLAG #FLG02
U 1 1 5EA5AA86
P 1400 1100
F 0 "#FLG02" H 1400 1175 50  0001 C CNN
F 1 "PWR_FLAG" V 1400 1228 50  0000 L CNN
F 2 "" H 1400 1100 50  0001 C CNN
F 3 "~" H 1400 1100 50  0001 C CNN
	1    1400 1100
	0    1    1    0   
$EndComp
Wire Wire Line
	6200 3050 6200 3500
Wire Wire Line
	6200 3500 6200 3750
Wire Wire Line
	6200 3750 8500 3750
Connection ~ 6200 3500
Connection ~ 8500 3750
$Comp
L Regulator_Linear:LM3480-3.3 U3
U 1 1 5E9328B9
P 2825 925
F 0 "U3" H 2825 1167 50  0000 C CNN
F 1 "LM3480-3.3" H 2825 1076 50  0000 C CNN
F 2 "Package_TO_SOT_SMD:SOT-23" H 2825 1150 50  0001 C CIN
F 3 "http://www.ti.com/lit/ds/symlink/lm3480.pdf" H 2825 925 50  0001 C CNN
	1    2825 925 
	1    0    0    -1  
$EndComp
Wire Wire Line
	2525 925  2225 925 
Wire Wire Line
	3125 925  3225 925 
Wire Wire Line
	2825 1225 3225 1225
$Comp
L Device:C C3
U 1 1 5E93D3F8
P 3225 1075
F 0 "C3" H 3375 1175 50  0000 L CNN
F 1 "1uF" H 3375 1075 50  0000 L CNN
F 2 "Capacitor_SMD:C_1206_3216Metric_Pad1.42x1.75mm_HandSolder" H 3263 925 50  0001 C CNN
F 3 "~" H 3225 1075 50  0001 C CNN
	1    3225 1075
	1    0    0    -1  
$EndComp
Connection ~ 3225 925 
Wire Wire Line
	3225 925  3525 925 
Connection ~ 3225 1225
Text Label 4100 925  2    50   ~ 0
3V3
Text Label 2225 925  0    50   ~ 0
9V
$Comp
L Connector:Conn_01x02_Female J5
U 1 1 5EAC875D
P 8500 4750
F 0 "J5" H 8528 4726 50  0000 L CNN
F 1 "Speaker" H 8528 4635 50  0000 L CNN
F 2 "custom-footprints:UPDI_Header_1x02_P2.54mm_Horizontal" H 8500 4750 50  0001 C CNN
F 3 "~" H 8500 4750 50  0001 C CNN
	1    8500 4750
	1    0    0    -1  
$EndComp
Wire Wire Line
	8100 4750 8300 4750
Wire Wire Line
	8100 4850 8300 4850
Connection ~ 8100 4850
Text Label 6250 1400 2    50   ~ 0
GND
Wire Wire Line
	8500 3750 8500 3900
Wire Wire Line
	8500 3300 8500 2700
Wire Wire Line
	4800 1400 5400 1400
Wire Wire Line
	5800 1400 6250 1400
Wire Wire Line
	7925 900  8275 900 
Wire Wire Line
	7950 1350 8275 1350
Wire Wire Line
	7950 1750 8275 1750
Wire Wire Line
	7950 2150 8275 2150
Text Label 8275 2150 2    50   ~ 0
GND
Text Label 8275 1750 2    50   ~ 0
GND
Text Label 8275 1350 2    50   ~ 0
GND
Text Label 8275 900  2    50   ~ 0
GND
$Comp
L Device:D_Schottky D2
U 1 1 5EA47A6E
P 3675 925
F 0 "D2" H 3675 709 50  0000 C CNN
F 1 "D_Schottky" H 3675 800 50  0000 C CNN
F 2 "Diode_SMD:D_SOD-123" H 3675 925 50  0001 C CNN
F 3 "~" H 3675 925 50  0001 C CNN
	1    3675 925 
	-1   0    0    1   
$EndComp
Wire Wire Line
	3825 925  4100 925 
$Comp
L power:GND #PWR05
U 1 1 5EA534E2
P 3225 1400
F 0 "#PWR05" H 3225 1150 50  0001 C CNN
F 1 "GND" H 3230 1227 50  0000 C CNN
F 2 "" H 3225 1400 50  0001 C CNN
F 3 "" H 3225 1400 50  0001 C CNN
	1    3225 1400
	1    0    0    -1  
$EndComp
$Comp
L Device:D_Schottky D7
U 1 1 5EA6383C
P 4400 2725
F 0 "D7" H 4400 2941 50  0000 C CNN
F 1 "D_Schottky" H 4400 2850 50  0000 C CNN
F 2 "Diode_SMD:D_SOD-123" H 4400 2725 50  0001 C CNN
F 3 "~" H 4400 2725 50  0001 C CNN
	1    4400 2725
	1    0    0    -1  
$EndComp
Wire Wire Line
	4675 2725 4550 2725
Wire Wire Line
	4250 2725 3950 2725
Text Label 3950 2725 0    50   ~ 0
3V3
Wire Wire Line
	3225 1400 3225 1225
$Comp
L Device:R R3
U 1 1 5E8FA5DA
P 7775 900
F 0 "R3" V 7568 900 50  0000 C CNN
F 1 "100" V 7659 900 50  0000 C CNN
F 2 "Resistor_SMD:R_1206_3216Metric_Pad1.42x1.75mm_HandSolder" V 7705 900 50  0001 C CNN
F 3 "~" H 7775 900 50  0001 C CNN
	1    7775 900 
	0    1    1    0   
$EndComp
$Comp
L Device:R R4
U 1 1 5E8FC093
P 7800 1350
F 0 "R4" V 7593 1350 50  0000 C CNN
F 1 "100" V 7684 1350 50  0000 C CNN
F 2 "Resistor_SMD:R_1206_3216Metric_Pad1.42x1.75mm_HandSolder" V 7730 1350 50  0001 C CNN
F 3 "~" H 7800 1350 50  0001 C CNN
	1    7800 1350
	0    1    1    0   
$EndComp
$Comp
L Device:R R5
U 1 1 5E8FFFB0
P 7800 1750
F 0 "R5" V 7593 1750 50  0000 C CNN
F 1 "100" V 7684 1750 50  0000 C CNN
F 2 "Resistor_SMD:R_1206_3216Metric_Pad1.42x1.75mm_HandSolder" V 7730 1750 50  0001 C CNN
F 3 "~" H 7800 1750 50  0001 C CNN
	1    7800 1750
	0    1    1    0   
$EndComp
$Comp
L Device:R R6
U 1 1 5E903EA3
P 7800 2150
F 0 "R6" V 7593 2150 50  0000 C CNN
F 1 "100" V 7684 2150 50  0000 C CNN
F 2 "Resistor_SMD:R_1206_3216Metric_Pad1.42x1.75mm_HandSolder" V 7730 2150 50  0001 C CNN
F 3 "~" H 7800 2150 50  0001 C CNN
	1    7800 2150
	0    1    1    0   
$EndComp
Wire Wire Line
	7450 2150 7650 2150
Wire Wire Line
	7450 1750 7650 1750
Wire Wire Line
	7450 1350 7650 1350
Wire Wire Line
	7425 900  7625 900 
Wire Wire Line
	10450 2950 10450 3350
Wire Wire Line
	10450 3350 10150 3350
Connection ~ 10150 3350
Wire Wire Line
	10450 5300 10450 5700
Wire Wire Line
	10450 5700 10150 5700
Connection ~ 10150 5700
$Comp
L Audio_Jack_SJ1-2533-SMT:SJ1-2533-SMT J4
U 1 1 5F5A6228
P 5800 5150
F 0 "J4" H 5907 5617 50  0000 C CNN
F 1 "SJ1-2533-SMT" H 5907 5526 50  0000 C CNN
F 2 "custom-footprints:Audio_Jack_CUI_SJ1-2533-SMT" H 5800 5150 50  0001 L BNN
F 3 "1.01" H 5800 5150 50  0001 L BNN
F 4 "CUI Inc" H 5800 5150 50  0001 L BNN "Field4"
F 5 "Manufacturer recommendations" H 5800 5150 50  0001 L BNN "Field5"
	1    5800 5150
	1    0    0    -1  
$EndComp
$Comp
L Connector:Barrel_Jack J1
U 1 1 5F5B8A84
P 900 900
F 0 "J1" H 957 1225 50  0000 C CNN
F 1 "Barrel_Jack" H 957 1134 50  0000 C CNN
F 2 "digikey-footprints:Barrel_Jack_5.5mmODx2.1mmID_PJ-102A" H 950 860 50  0001 C CNN
F 3 "~" H 950 860 50  0001 C CNN
	1    900  900 
	1    0    0    -1  
$EndComp
Wire Wire Line
	1200 800  1200 575 
Connection ~ 1200 800 
$Comp
L Microphone_MEMS_Analog:SPU0414HR5H-SB MK1
U 1 1 5F5D8933
P 6850 3400
F 0 "MK1" H 7500 3665 50  0000 C CNN
F 1 "SPU0414HR5H-SB" H 7500 3574 50  0000 C CNN
F 2 "custom-footprints:Microphone_MEMS_Analog_SPU0414HR5H-SB" H 8250 3450 50  0001 L CNN
F 3 "https://componentsearchengine.com/Datasheets/1/SPU0414HR5H-SB.pdf" H 8250 3350 50  0001 L CNN
F 4 "MEMS Microphones MIC MEMS ANALOG OMNI -22DB" H 8250 3250 50  0001 L CNN "Description"
F 5 "Knowles" H 8000 3100 50  0001 L CNN "Manufacturer_Name"
F 6 "SPU0414HR5H-SB" H 8250 2950 50  0001 L CNN "Manufacturer_Part_Number"
F 7 "721-SPU0414HR5H-SB" H 8250 2850 50  0001 L CNN "Mouser Part Number"
F 8 "https://www.mouser.com/Search/Refine.aspx?Keyword=721-SPU0414HR5H-SB" H 8250 2750 50  0001 L CNN "Mouser Price/Stock"
	1    6850 3400
	1    0    0    -1  
$EndComp
$EndSCHEMATC
